…
Let’s just test it quickly on Lane County

estimate_d(lane)

## [1] 0.02849925

Great! Now we can loop it through all the counties.

by_county <- split(or_tracts, or_tracts$county) 

county_seg <- tibble(county = names(by_county),
                     d = map_dbl(by_county, estimate_d))
county_seg

## # A tibble: 36 x 2
##    county          d
##    <chr>       <dbl>
##  1 Baker     0.0390 
##  2 Benton    0.00702
##  3 Clackamas 0.00907
##  4 Clatsop   0.0158 
##  5 Columbia  0.0105 
##  6 Coos      0.0303 
##  7 Crook     0.0647 
##  8 Curry     0.0840 
##  9 Deschutes 0.0181 
## 10 Douglas   0.0141 
## # ... with 26 more rows
…
