School District Level Segregation | OR-K-Entry
…
school_mem <- read_csv("https://github.com/OR-K-Entry/k-entry/raw/master/data/nces/intermediary/schools_mem.csv") %>% 
  filter(school_year == "2017-2018") %>% 
  select(ncessch, total) %>% 
  distinct()

# Join and remove overall statewide data
d <- left_join(school_mem, school_lunch_elig) %>% 
  filter(leaid != 4100009) %>% 
  select(leaid, ncessch, frl, total)
d

## # A tibble: 1,244 x 4
##      leaid      ncessch   frl total
##      <dbl>        <dbl> <dbl> <dbl>
##  1 4100003 410000301061    91   130
##  2 4100003 410000301062    41    77
##  3 4100014 410001400748   265   416
##  4 4100014 410001400754    58    97
##  5 4100014 410001400761   153   281
##  6 4100014 410001401026    60   100
##  7 4100015 410001500821   358   425
##  8 4100015 410001500831   191   237
##  9 4100015 410001500853   222   308
## 10 4100015 410001501588    26    36
## # … with 1,234 more rows
…
  1/2*sum(abs(a - b), na.rm = TRUE)
}

In this function, ind stands for counts of the given indicator, such as the number of students in the school receiving free or reduced price lunch. The total argument refers to the total number of students in the school. The ind argument is assumed to be a vector of counts for schools in the district, while total can be either a vector of the same length or a scalar. Please see the previous blog post for a more detailed explanation of the body of this function (and as always, feel free to get in touch if it’s still confusing).

One thing to note is that the first thing the function does is check if at least 50% of schools in the district report free or reduced price lunch (FRL) data. This is because districts in Oregon do not report FRL counts if there are fewer than 7 students in the school that receive FRL services. The 50% cutoff is arbitrary, and we might want to look at other values, but it’s just what I decided on for now. We need FRL eligibility data for at least half the schools in the district to obtain an overall district-level estimate of economic segregation.

Now, let’s calculate it for each district.

dissims <- d %>%
  group_by(leaid) %>% 
  summarize(d = dissim(frl, total))
dissims

## # A tibble: 198 x 2
##      leaid         d
##      <dbl>     <dbl>
##  1 4100003 0.3188406
##  2 4100014 0.2997763
##  3 4100015 0.4084939
##  4 4100016 0.2035   
##  5 4100019 0.2768065
##  6 4100020 0.2999805
##  7 4100021 0.3070539
##  8 4100023 0.2578609
##  9 4100040 0.2535497
## 10 4100043 0.4610778
## # … with 188 more rows

Hooray! Which districts in Oregon are the most economically segregated, using this method?

arrange(dissims, desc(d))

## # A tibble: 198 x 2
##      leaid         d
##      <dbl>     <dbl>
##  1 4108100 0.4666434
##  2 4100043 0.4610778
##  3 4110040 0.4091908
##  4 4100015 0.4084939
##  5 4109270 0.4040470
##  6 4101350 0.4022989
##  7 4111640 0.4019608
##  8 4112600 0.3994807
##  9 4107710 0.3943662
## 10 4107590 0.3937433
## # … with 188 more rows
…
